[gd_resource type="AudioBusLayout" load_steps=2 format=3 uid="uid://b5asbadlhmade"]

[sub_resource type="AudioEffectReverb" id="AudioEffectReverb_fxagd"]
resource_name = "Reverb"
room_size = 0.07
damping = 1.0
spread = 0.34
wet = 0.2

[resource]
bus/1/name = &"Glass"
bus/1/solo = false
bus/1/mute = false
bus/1/bypass_fx = false
bus/1/volume_db = 0.0
bus/1/send = &"Master"
bus/1/effect/0/effect = SubResource("AudioEffectReverb_fxagd")
bus/1/effect/0/enabled = true
bus/2/name = &"Slap"
bus/2/solo = false
bus/2/mute = false
bus/2/bypass_fx = false
bus/2/volume_db = 0.0
bus/2/send = &"Master"
