[gd_scene load_steps=9 format=3 uid="uid://5auxq4701fku"]

[ext_resource type="PackedScene" uid="uid://cstvdpirm4w4s" path="res://fruits/fruit.tscn" id="1_4d1bi"]
[ext_resource type="Texture2D" uid="uid://d4l068bwqddjt" path="res://fruits/Lemon/lemon.png" id="2_1pggd"]
[ext_resource type="PackedScene" uid="uid://dkbm72nsc7sba" path="res://fruits/Pomelo/pomelo.tscn" id="2_hopp5"]
[ext_resource type="Script" path="res://fruits/fruit_data.gd" id="2_iimop"]
[ext_resource type="Texture2D" uid="uid://552q80ohebdv" path="res://fruits/Lemon/label.png" id="5_b8ij7"]

[sub_resource type="Resource" id="Resource_r0jdn"]
script = ExtResource("2_iimop")
name = "Lemon"
nextFruit = ExtResource("2_hopp5")
pointValue = 4

[sub_resource type="CircleShape2D" id="CircleShape2D_lss8v"]
radius = 56.0

[sub_resource type="CapsuleShape2D" id="CapsuleShape2D_6dyus"]
radius = 13.0
height = 144.054

[node name="Lemon" groups=["Lemon"] instance=ExtResource("1_4d1bi")]
mass = 0.5
fruitData = SubResource("Resource_r0jdn")

[node name="Sprite" parent="." index="0"]
position = Vector2(2, 0)
texture = ExtResource("2_1pggd")

[node name="Circle" parent="." index="1"]
position = Vector2(0, 1)
shape = SubResource("CircleShape2D_lss8v")

[node name="CollisionShape2D2" type="CollisionShape2D" parent="." index="2"]
position = Vector2(0, -1)
rotation = 0.0236353
shape = SubResource("CapsuleShape2D_6dyus")

[node name="NameBoom" parent="." index="3"]
texture = ExtResource("5_b8ij7")
