[gd_resource type="Resource" script_class="LegacyData" load_steps=2 format=3 uid="uid://cj4g78xqvpmhf"]

[ext_resource type="Script" path="res://fruits/legacy_data_type.gd" id="1_qwynh"]

[resource]
script = ExtResource("1_qwynh")
colors = Array[Color]([Color(0.858824, 0, 0, 1), Color(1, 0.458824, 0.521569, 1), Color(0.447059, 0, 0.839216, 1), Color(1, 0.701961, 0, 1), Color(1, 0.435294, 0, 1), Color(1, 0.0784314, 0.0784314, 1), Color(1, 0.94902, 0.4, 1), Color(1, 0.619608, 0.988235, 1), Color(1, 1, 0.141176, 1), Color(0.745098, 1, 0.388235, 1), Color(0, 0.709804, 0.0823529, 1)])
radius = Array[float]([19.985, 26.6, 37.5, 41.755, 52.755, 68.39, 81.39, 94.675, 106.005, 132.0, 150.0])
points = Array[int]([1, 3, 6, 10, 15, 21, 28, 36, 45, 55, 66])
chances = Array[int]([20, 20, 20, 20, 20])
amount = 11
